final assignment, Alexandra Salo
…
Rows: 6400 Columns: 30
── Column specification ────────────────────────────────────────────────────────
Delimiter: ";"
chr  (1): gender
dbl (28): age, marital, address, income, inccat, carcat, ed, employ, retire,...
num  (1): car

ℹ Use `spec()` to retrieve the full column specification for this data.
ℹ Specify the column types or set `show_col_types = FALSE` to quiet this message.

data

# A tibble: 6,400 × 30
     age marital address income inccat   car carcat    ed employ retire empcat
   <dbl>   <dbl>   <dbl>  <dbl>  <dbl> <dbl>  <dbl> <dbl>  <dbl>  <dbl>  <dbl>
 1    55       1      12     72      3   362      3     1     23      0      3
 2    56       0      29    153      4   769      3     1     35      0      3
 3    28       1       9     28      2   137      1     3      4      0      1
 4    24       1       4     26      2   125      1     4      0      0      1
 5    25       0       2     23      1   113      1     2      5      0      2
 6    45       1       9     76      4   372      3     3     13      0      2
 7    42       0      19     40      2   198      2     3     10      0      2
 8    35       0      15     57      3   282      2     2      1      0      1
 9    46       0      26     24      1   122      1     1     11      0      2
10    34       1       0     89      4   461      3     3     12      0      2
# ℹ 6,390 more rows
# ℹ 19 more variables: jobsat <dbl>, gender <chr>, reside <dbl>,
#   wireless <dbl>, multline <dbl>, voice <dbl>, pager <dbl>, internet <dbl>,
#   callid <dbl>, callwait <dbl>, owntv <dbl>, ownvcr <dbl>, owncd <dbl>,
#   ownpda <dbl>, ownpc <dbl>, ownfax <dbl>, news <dbl>, response <dbl>,
#   `filter_$` <dbl>
…
