assignment-textmining
…
#Filter out unneccesary words/ numbers
tidy_speeches <- tidy_speeches %>%
  anti_join(stop_words) |> #remove stop words
  filter(!grepl("^[0-9]+$", word))   # Remove words that are entirely numeric

Joining with `by = join_by(word)`

#Lets check it out
tidy_speeches

# A tibble: 456,756 × 7
   speaker   title                         text  date       location type  word 
   <chr>     <chr>                         <chr> <date>     <chr>    <chr> <chr>
 1 Joe Biden Joe Biden Southfield, MI Spe… "Joe… 2020-10-16 Southfi… Camp… Joe  
 2 Joe Biden Joe Biden Southfield, MI Spe… "Joe… 2020-10-16 Southfi… Camp… Biden
 3 Joe Biden Joe Biden Southfield, MI Spe… "Joe… 2020-10-16 Southfi… Camp… Hello
 4 Joe Biden Joe Biden Southfield, MI Spe… "Joe… 2020-10-16 Southfi… Camp… Mich…
 5 Joe Biden Joe Biden Southfield, MI Spe… "Joe… 2020-10-16 Southfi… Camp… Hi   
 6 Joe Biden Joe Biden Southfield, MI Spe… "Joe… 2020-10-16 Southfi… Camp… What…
 7 Joe Biden Joe Biden Southfield, MI Spe… "Joe… 2020-10-16 Southfi… Camp… Sam  
 8 Joe Biden Joe Biden Southfield, MI Spe… "Joe… 2020-10-16 Southfi… Camp… Than…
 9 Joe Biden Joe Biden Southfield, MI Spe… "Joe… 2020-10-16 Southfi… Camp… I    
10 Joe Biden Joe Biden Southfield, MI Spe… "Joe… 2020-10-16 Southfi… Camp… Alex…
# ℹ 456,746 more rows
…
Joining with `by = join_by(word)`

Warning in inner_join(., get_sentiments("bing")): Detected an unexpected many-to-many relationship between `x` and `y`.
ℹ Row 154444 of `x` matches multiple rows in `y`.
ℹ Row 415 of `y` matches multiple rows in `x`.
ℹ If a many-to-many relationship is expected, set `relationship =
  "many-to-many"` to silence this warning.

speeches_sentiment

# A tibble: 154 × 6
   title                          date       speaker negative positive sentiment
   <chr>                          <date>     <chr>      <int>    <int>     <int>
 1 Cardi B Interviews Joe Biden … 2020-08-17 Joe Bi…       55       65        10
 2 Donal Trump Iowa Rally Transc… 2020-01-30 Donald…      289      276       -13
 3 Donald Trump 2020 RNC Night 4… 2020-08-27 Donald…      209      227        18
 4 Donald Trump 2020 RNC Speech … 2020-08-24 Donald…      137      184        47
 5 Donald Trump ABC News Town Ha… 2020-09-16 Donald…      269      179       -90
 6 Donald Trump Campaign Rally G… 2020-10-15 Donald…      263      252       -11
 7 Donald Trump Campaign Rally S… 2020-10-12 Donald…      194      217        23
 8 Donald Trump Campaign Rally S… 2020-09-18 Donald…      372      395        23
 9 Donald Trump Campaign Speech … 2020-09-21 Donald…      242      201       -41
10 Donald Trump Charleston, Sout… 2020-02-28 Donald…      267      255       -12
# ℹ 144 more rows
…
Joining with `by = join_by(word)`

Warning in inner_join(., get_sentiments("nrc") %>% filter(sentiment %in% : Detected an unexpected many-to-many relationship between `x` and `y`.
ℹ Row 1103 of `x` matches multiple rows in `y`.
ℹ Row 417 of `y` matches multiple rows in `x`.
ℹ If a many-to-many relationship is expected, set `relationship =
  "many-to-many"` to silence this warning.

We now have an estimate of the average speech sentiment (positive - negative) in each speakers speeches for each sentiment lexicon. Let’s look at them:

afinn

# A tibble: 154 × 4
# Groups:   title [154]
   title                                             date       sentiment method
   <chr>                                             <date>         <dbl> <chr> 
 1 Cardi B Interviews Joe Biden Transcript           2020-08-17        27 AFINN 
 2 Donal Trump Iowa Rally Transcript: Trump Holds R… 2020-01-30        10 AFINN 
 3 Donald Trump 2020 RNC Night 4 Speech Transcript   2020-08-27        49 AFINN 
 4 Donald Trump 2020 RNC Speech Transcript August 24 2020-08-24        88 AFINN 
 5 Donald Trump ABC News Town Hall Transcript with … 2020-09-16      -198 AFINN 
 6 Donald Trump Campaign Rally Greenville, NC Trans… 2020-10-15        32 AFINN 
 7 Donald Trump Campaign Rally Sanford, Florida Tra… 2020-10-12       126 AFINN 
 8 Donald Trump Campaign Rally Speech Bemidji, Minn… 2020-09-18       116 AFINN 
 9 Donald Trump Campaign Speech Transcript Vandalia… 2020-09-21        20 AFINN 
10 Donald Trump Charleston, South Carolina Rally Tr… 2020-02-28       -58 AFINN 
# ℹ 144 more rows

bing_and_nrc

# A tibble: 308 × 7
   method      title              date       speaker negative positive sentiment
   <chr>       <chr>              <date>     <chr>      <int>    <int>     <int>
 1 Bing et al. Cardi B Interview… 2020-08-17 Joe Bi…       55       65        10
 2 Bing et al. Donal Trump Iowa … 2020-01-30 Donald…      289      276       -13
 3 Bing et al. Donald Trump 2020… 2020-08-27 Donald…      209      227        18
 4 Bing et al. Donald Trump 2020… 2020-08-24 Donald…      137      184        47
 5 Bing et al. Donald Trump ABC … 2020-09-16 Donald…      269      179       -90
 6 Bing et al. Donald Trump Camp… 2020-10-15 Donald…      263      252       -11
 7 Bing et al. Donald Trump Camp… 2020-10-12 Donald…      194      217        23
 8 Bing et al. Donald Trump Camp… 2020-09-18 Donald…      372      395        23
 9 Bing et al. Donald Trump Camp… 2020-09-21 Donald…      242      201       -41
10 Bing et al. Donald Trump Char… 2020-02-28 Donald…      267      255       -12
# ℹ 298 more rows
…
We see generally some similar trends between the two, especially around October we see similar time periods where both aspiring presidents have a peak or a dip. This enforces the idea that the campaigns must have been heavily following each other presences and mimicking and trying to play on the weaknesses of the other candidate, perhaps disussing similar topics around the same time.

Most negative speeches

Something that is interesting to consider after seeing this graph is which speech was the most negative of Trump and Biden? In other words which speech has the highest proportion of negative words?

#filter negative words from Bing
bingnegative <- get_sentiments("bing") %>% 
  filter(sentiment == "negative")

bingnegative

# A tibble: 4,781 × 2
   word        sentiment
   <chr>       <chr>    
 1 2-faces     negative 
 2 abnormal    negative 
 3 abolish     negative 
 4 abominable  negative 
 5 abominably  negative 
 6 abominate   negative 
 7 abomination negative 
 8 abort       negative 
 9 aborted     negative 
10 aborts      negative 
# ℹ 4,771 more rows
…
This makes sense, as all speeches are about quite heavy and negative topics/ themes.

Term frequency in the speeches

To look at the content of the speeches themselves, we look to the next part of our analysis term frequency and then later TF-IDF.

#first we count the words by speaker
tidy_words <- tidy_speeches |> 
  count(speaker, word, sort = TRUE)

#we get a dataframe with the number of times the word appears in each book
tidy_words

# A tibble: 32,550 × 3
   speaker      word       n
   <chr>        <chr>  <int>
 1 Donald Trump I      10779
 2 Joe Biden    I       6005
 3 Donald Trump Trump   5116
 4 Donald Trump And     4337
 5 Donald Trump Donald  4258
 6 Donald Trump We      3519
 7 Joe Biden    Biden   3101
 8 Joe Biden    Joe     3066
 9 Donald Trump people  2736
10 Donald Trump They    2675
# ℹ 32,540 more rows
…
#we add a column with this total number to the dataframe book_words
tidy_words <- left_join(tidy_words, total_words)

Joining with `by = join_by(speaker)`

tidy_words

# A tibble: 32,550 × 4
   speaker      word       n  total
   <chr>        <chr>  <int>  <int>
 1 Donald Trump I      10779 229919
 2 Joe Biden    I       6005 158295
 3 Donald Trump Trump   5116 229919
 4 Donald Trump And     4337 229919
 5 Donald Trump Donald  4258 229919
 6 Donald Trump We      3519 229919
 7 Joe Biden    Biden   3101 158295
 8 Joe Biden    Joe     3066 158295
 9 Donald Trump people  2736 229919
10 Donald Trump They    2675 229919
# ℹ 32,540 more rows

Then we are ready to calculate the term frequency

tidy_words <- tidy_words %>%
  #we add a column for term_frequency in each novel
  mutate(term_frequency = n/total)

tidy_words

# A tibble: 32,550 × 5
   speaker      word       n  total term_frequency
   <chr>        <chr>  <int>  <int>          <dbl>
 1 Donald Trump I      10779 229919         0.0469
 2 Joe Biden    I       6005 158295         0.0379
 3 Donald Trump Trump   5116 229919         0.0223
 4 Donald Trump And     4337 229919         0.0189
 5 Donald Trump Donald  4258 229919         0.0185
 6 Donald Trump We      3519 229919         0.0153
 7 Joe Biden    Biden   3101 158295         0.0196
 8 Joe Biden    Joe     3066 158295         0.0194
 9 Donald Trump people  2736 229919         0.0119
10 Donald Trump They    2675 229919         0.0116
# ℹ 32,540 more rows
…
Most words have very low frequencies (on the left) and a few words have very high frequencies (on the right). However between Trump and Biden we see interesting difference, as it seems like Trumps tail is less descending and more of a jump after the first long bar. Showing that maybe the words he uses frequently he uses more frequently than Biden for example, this could show a more limited vocabulary in Trump for example or a tendency to use words more frequently.

Analyzing the TF-IDF by speaker

#we create a new variable with the analysis
speech_tf_idf <- tidy_words %>%
  bind_tf_idf(word, speaker, n)

speech_tf_idf

# A tibble: 32,550 × 8
   speaker      word       n  total term_frequency     tf   idf tf_idf
   <chr>        <chr>  <int>  <int>          <dbl>  <dbl> <dbl>  <dbl>
 1 Donald Trump I      10779 229919         0.0469 0.0469     0      0
 2 Joe Biden    I       6005 158295         0.0379 0.0379     0      0
 3 Donald Trump Trump   5116 229919         0.0223 0.0223     0      0
 4 Donald Trump And     4337 229919         0.0189 0.0189     0      0
 5 Donald Trump Donald  4258 229919         0.0185 0.0185     0      0
 6 Donald Trump We      3519 229919         0.0153 0.0153     0      0
 7 Joe Biden    Biden   3101 158295         0.0196 0.0196     0      0
 8 Joe Biden    Joe     3066 158295         0.0194 0.0194     0      0
 9 Donald Trump people  2736 229919         0.0119 0.0119     0      0
10 Donald Trump They    2675 229919         0.0116 0.0116     0      0
# ℹ 32,540 more rows
…
The more documents containing the word, the less distinctive it is of any of them, so the TF-IDF score will be higher for words that occur fewer times. The TF-IDF analysis rewards these words.

To check this, we just have to arrange the dataframe by tf-idf:

desc <- speech_tf_idf %>%
  #we exclude the total column which is not necessary now
  select(-total) %>%
  #we arrange by tf-idf in descending order
  arrange(desc(tf_idf)) 

desc |> 
  filter(speaker == "Joe Biden")

# A tibble: 12,215 × 7
   speaker   word         n term_frequency       tf   idf   tf_idf
   <chr>     <chr>    <int>          <dbl>    <dbl> <dbl>    <dbl>
 1 Joe Biden Muslim      98       0.000619 0.000619 1.39  0.000858
 2 Joe Biden Joey        54       0.000341 0.000341 1.39  0.000473
 3 Joe Biden Shanrika    53       0.000335 0.000335 1.39  0.000464
 4 Joe Biden Awad        48       0.000303 0.000303 1.39  0.000420
 5 Joe Biden Garcia      47       0.000297 0.000297 1.39  0.000412
 6 Joe Biden Enrique     45       0.000284 0.000284 1.39  0.000394
 7 Joe Biden vehicles    42       0.000265 0.000265 1.39  0.000368
 8 Joe Biden Nelson      41       0.000259 0.000259 1.39  0.000359
 9 Joe Biden Nihad       39       0.000246 0.000246 1.39  0.000342
10 Joe Biden Scranton    77       0.000486 0.000486 0.693 0.000337
# ℹ 12,205 more rows

desc |> 
  filter(speaker == "Donald Trump")

# A tibble: 11,335 × 7
   speaker      word         n term_frequency       tf   idf   tf_idf
   <chr>        <chr>    <int>          <dbl>    <dbl> <dbl>    <dbl>
 1 Donald Trump fake       275       0.00120  0.00120  1.39  0.00166 
 2 Donald Trump hell       312       0.00136  0.00136  0.693 0.000941
 3 Donald Trump crazy      268       0.00117  0.00117  0.693 0.000808
 4 Donald Trump J          479       0.00208  0.00208  0.288 0.000599
 5 Donald Trump Sleepy      98       0.000426 0.000426 1.39  0.000591
 6 Donald Trump USA        454       0.00197  0.00197  0.288 0.000568
 7 Donald Trump Savannah   188       0.000818 0.000818 0.693 0.000567
 8 Donald Trump sleepy      94       0.000409 0.000409 1.39  0.000567
 9 Donald Trump aliens      87       0.000378 0.000378 1.39  0.000525
10 Donald Trump Wallace    154       0.000670 0.000670 0.693 0.000464
# ℹ 11,325 more rows
…
N-grams and relationships between words in the speeches

The last analysis was interesting, but it left me with some unanswered questions and I would benefit from more context in the analysis of the more and less frequent words. So using bigrams and trigrams are a great way to expand the analysis to include more context.

speech_bigrams <- filtered_speeches %>%
  #we take the text in austen_books, and tokenize it to sequences of 2 words
  unnest_tokens(bigram, text, token = "ngrams", n = 2) %>%
  #we filter all N/A outputs
  filter(!is.na(bigram))

speech_bigrams

# A tibble: 1,072,170 × 6
   speaker   title                              date       location type  bigram
   <chr>     <chr>                              <date>     <chr>    <chr> <chr> 
 1 Joe Biden Joe Biden Southfield, MI Speech o… 2020-10-16 Southfi… Camp… joe b…
 2 Joe Biden Joe Biden Southfield, MI Speech o… 2020-10-16 Southfi… Camp… biden…
 3 Joe Biden Joe Biden Southfield, MI Speech o… 2020-10-16 Southfi… Camp… 00 00 
 4 Joe Biden Joe Biden Southfield, MI Speech o… 2020-10-16 Southfi… Camp… 00 he…
 5 Joe Biden Joe Biden Southfield, MI Speech o… 2020-10-16 Southfi… Camp… hello…
 6 Joe Biden Joe Biden Southfield, MI Speech o… 2020-10-16 Southfi… Camp… michi…
 7 Joe Biden Joe Biden Southfield, MI Speech o… 2020-10-16 Southfi… Camp… hi how
 8 Joe Biden Joe Biden Southfield, MI Speech o… 2020-10-16 Southfi… Camp… how a…
 9 Joe Biden Joe Biden Southfield, MI Speech o… 2020-10-16 Southfi… Camp… are y…
10 Joe Biden Joe Biden Southfield, MI Speech o… 2020-10-16 Southfi… Camp… you w…
# ℹ 1,072,160 more rows
bigrams_separated <- speech_bigrams %>%
  #we separate each bigram in two columns, word1 and word2
  separate(bigram, c("word1", "word2"), sep = " ")

#we filter all words included in the word column in stop_words
bigrams_filtered <- bigrams_separated %>%
  filter(!word1 %in% stop_words$word) %>%
  filter(!word2 %in% stop_words$word) %>%
  # Filter out rows where word1 or word2 are numbers
  filter(!grepl("^[0-9]+$", word1)) %>%
  filter(!grepl("^[0-9]+$", word2))

bigrams_filtered

# A tibble: 126,159 × 7
   speaker   title                         date       location type  word1 word2
   <chr>     <chr>                         <date>     <chr>    <chr> <chr> <chr>
 1 Joe Biden Joe Biden Southfield, MI Spe… 2020-10-16 Southfi… Camp… joe   biden
 2 Joe Biden Joe Biden Southfield, MI Spe… 2020-10-16 Southfi… Camp… time  tell…
 3 Joe Biden Joe Biden Southfield, MI Spe… 2020-10-16 Southfi… Camp… story it’s 
 4 Joe Biden Joe Biden Southfield, MI Spe… 2020-10-16 Southfi… Camp… awful lot  
 5 Joe Biden Joe Biden Southfield, MI Spe… 2020-10-16 Southfi… Camp… folks it’s 
 6 Joe Biden Joe Biden Southfield, MI Spe… 2020-10-16 Southfi… Camp… joe   biden
 7 Joe Biden Joe Biden Southfield, MI Spe… 2020-10-16 Southfi… Camp… gret… whit…
 8 Joe Biden Joe Biden Southfield, MI Spe… 2020-10-16 Southfi… Camp… whit… that…
 9 Joe Biden Joe Biden Southfield, MI Spe… 2020-10-16 Southfi… Camp… i’ve  met  
10 Joe Biden Joe Biden Southfield, MI Spe… 2020-10-16 Southfi… Camp… met   virt…
# ℹ 126,149 more rows

# bigram counts to see which bigrams are the most common:
bigram_counts <- bigrams_filtered %>% 
  count(word1, word2, sort = TRUE)

bigrams_united <- bigrams_filtered %>%
  unite(bigram, word1, word2, sep = " ") 

bigrams_united |> 
  count(bigram, sort= TRUE)

# A tibble: 56,558 × 2
   bigram               n
   <chr>            <int>
 1 donald trump      4316
 2 joe biden         3683
 3 vice president    1144
 4 president donald  1040
 5 mike pence         870
 6 president trump    809
 7 kamala harris      441
 8 law enforcement    426
 9 american people    396
10 usa usa            376
# ℹ 56,548 more rows
…
filtered_speeches %>%
  unnest_tokens(trigram, text, token = "ngrams", n = 3) %>%
  filter(!is.na(trigram)) %>%
  separate(trigram, c("word1", "word2", "word3"), sep = " ") %>%
  filter(!word1 %in% stop_words$word,
         !word2 %in% stop_words$word,
         !word3 %in% stop_words$word, 
         !grepl("^[0-9]+$", word1), 
         !grepl("^[0-9]+$", word2), 
         !grepl("^[0-9]+$", word3)) %>%
  count(word1, word2, word3, sort = TRUE) %>%
  unite(trigram, word1, word2, word3, sep = " ")

# A tibble: 31,069 × 2
   trigram                    n
   <chr>                  <int>
 1 president donald trump   750
 2 president mike pence     342
 3 vice president mike      341
 4 usa usa usa              319
 5 president joe biden      210
 6 vice president joe       182
 7 senator kamala harris    116
 8 vice president biden     106
 9 affordable care act       75
10 world war ii              60
# ℹ 31,059 more rows
…
bigrams_filtered %>%
  filter(word1 == "covid") %>%
  count(speaker, word1, word2, sort = TRUE)

# A tibble: 72 × 4
   speaker      word1 word2         n
   <chr>        <chr> <chr>     <int>
 1 Joe Biden    covid crisis       16
 2 Joe Biden    covid virus         7
 3 Joe Biden    covid joe           6
 4 Donald Trump covid president     3
 5 Joe Biden    covid deaths        3
 6 Joe Biden    covid relief        3
 7 Joe Biden    covid test          3
 8 Joe Biden    covid testing       3
 9 Donald Trump covid donald        2
10 Donald Trump covid hit           2
# ℹ 62 more rows
…
Combine with TF-IDF

#we use the bigrams united dataframe
bigram_tf_idf <- bigrams_united %>%
  #we count by speaker
  count(speaker, bigram) %>%
  #we perform tf_idf
  bind_tf_idf(bigram, speaker, n) %>%
  #we arrange in descending order
  arrange(desc(tf_idf))

bigram_tf_idf |> 
  filter(speaker == "Mike Pence")

# A tibble: 5,633 × 6
   speaker    bigram                 n      tf   idf  tf_idf
   <chr>      <chr>              <int>   <dbl> <dbl>   <dbl>
 1 Mike Pence mike pence           824 0.0564  0.288 0.0162 
 2 Mike Pence president mike       331 0.0227  0.693 0.0157 
 3 Mike Pence president donald     312 0.0214  0.288 0.00615
 4 Mike Pence taxpayer funding      26 0.00178 1.39  0.00247
 5 Mike Pence usa usa               51 0.00349 0.693 0.00242
 6 Mike Pence supporting law        24 0.00164 1.39  0.00228
 7 Mike Pence unleashed american    24 0.00164 1.39  0.00228
 8 Mike Pence challenging times     23 0.00158 1.39  0.00218
 9 Mike Pence daniel garza          23 0.00158 1.39  0.00218
10 Mike Pence federal red           23 0.00158 1.39  0.00218
# ℹ 5,623 more rows

bigram_tf_idf |> 
  filter(speaker == "Donald Trump")

# A tibble: 27,455 × 6
   speaker      bigram               n       tf   idf  tf_idf
   <chr>        <chr>            <int>    <dbl> <dbl>   <dbl>
 1 Donald Trump fake news          191 0.00315  1.39  0.00437
 2 Donald Trump sleepy joe         173 0.00286  1.39  0.00396
 3 Donald Trump usa usa            325 0.00537  0.693 0.00372
 4 Donald Trump president donald   725 0.0120   0.288 0.00344
 5 Donald Trump chris wallace      152 0.00251  0.693 0.00174
 6 Donald Trump savannah guthrie   142 0.00235  0.693 0.00163
 7 Donald Trump laura ingraham      70 0.00116  1.39  0.00160
 8 Donald Trump winning winning     65 0.00107  1.39  0.00149
 9 Donald Trump bret baier          62 0.00102  1.39  0.00142
10 Donald Trump crazy bernie        60 0.000991 1.39  0.00137
# ℹ 27,445 more rows
…
